…
Furthermore, an example dataset `psc` is provided in the `kraljicMatrix` package. This data contains 200 product and service contracts (PSC).  Each PSC has an x attribute (i.e. supply risk) score from 1 (worst) to 5 (best) and y attribute (i.e. profit impact) score from 1 (worst) to 10 (best).

```{r, eval=FALSE}
psc
## # A tibble: 200 × 3
##      PSC x_attribute y_attribute
##    <chr>       <int>       <int>
## 1   D233        3.01        4.84
## 2   F352        4.34        5.64
## 3   T713        3.37        4.30
## 4   K833        2.67        5.53
## 5   Q121        3.48        4.33
## 6   C791        3.32        7.32
## 7   Y207        3.48        5.42
## 8   W439        2.47        3.35
## 9   N290        1.66        4.02
## 10  C251        1.00        7.47
## # ... with 190 more rows
```
…
